<?xml version="1.0" encoding="UTF-8" standalone="no"?>
<svg
   xmlns:dc="http://purl.org/dc/elements/1.1/"
   xmlns:cc="http://creativecommons.org/ns#"
   xmlns:rdf="http://www.w3.org/1999/02/22-rdf-syntax-ns#"
   xmlns:svg="http://www.w3.org/2000/svg"
   xmlns="http://www.w3.org/2000/svg"
   xmlns:xlink="http://www.w3.org/1999/xlink"
   xmlns:sodipodi="http://sodipodi.sourceforge.net/DTD/sodipodi-0.dtd"
   xmlns:inkscape="http://www.inkscape.org/namespaces/inkscape"
   viewBox="0 0 437.5 437.5"
   version="1.1"
   id="svg63"
   sodipodi:docname="no-photos-28061_custom_dark.svg"
   inkscape:version="0.92.4 (5da689c313, 2019-01-14)">
  <metadata
     id="metadata67">
    <rdf:RDF>
      <cc:Work
         rdf:about="">
        <dc:format>image/svg+xml</dc:format>
        <dc:type
           rdf:resource="http://purl.org/dc/dcmitype/StillImage" />
        <dc:title></dc:title>
      </cc:Work>
    </rdf:RDF>
  </metadata>
  <sodipodi:namedview
     pagecolor="#ffffff"
     bordercolor="#666666"
     borderopacity="1"
     objecttolerance="10"
     gridtolerance="10"
     guidetolerance="10"
     inkscape:pageopacity="0"
     inkscape:pageshadow="2"
     inkscape:window-width="1920"
     inkscape:window-height="1001"
     id="namedview65"
     showgrid="false"
     inkscape:zoom="0.53942857"
     inkscape:cx="218.75"
     inkscape:cy="218.75"
     inkscape:window-x="-9"
     inkscape:window-y="-9"
     inkscape:window-maximized="1"
     inkscape:current-layer="svg63" />
  <defs
     id="defs39">
    <linearGradient
       id="a">
      <stop
         stop-color="#8cc57a"
         offset="0"
         id="stop2" />
      <stop
         stop-color="#ff0"
         offset="1"
         id="stop4" />
    </linearGradient>
    <linearGradient
       id="i"
       x1=".30827"
       x2=".5188"
       y1=".61719"
       y2=".5">
      <stop
         stop-color="#6b5a00"
         offset="0"
         id="stop7" />
      <stop
         stop-color="#ffef9f"
         offset="1"
         id="stop9" />
    </linearGradient>
    <linearGradient
       id="h"
       x1="3.9624e-10">
      <stop
         stop-color="#0f0"
         offset="0"
         id="stop12" />
      <stop
         stop-color="#ff0"
         offset="1"
         id="stop14" />
    </linearGradient>
    <linearGradient
       id="g"
       x1=".33334"
       x2=".37209"
       y1=".87501"
       y2=".4375">
      <stop
         stop-color="#003d00"
         stop-opacity=".3843"
         offset="0"
         id="stop17" />
      <stop
         stop-color="#250000"
         offset="1"
         id="stop19" />
    </linearGradient>
    <linearGradient
       id="f"
       x1=".56296"
       x2=".65185"
       y1=".10156"
       y2=".57031">
      <stop
         stop-color="#003d00"
         offset="0"
         id="stop22" />
      <stop
         stop-color="#7aa765"
         offset="1"
         id="stop24" />
    </linearGradient>
    <linearGradient
       id="e"
       x1=".87023"
       x2=".79389"
       y1=".28125"
       y2=".20313"
       xlink:href="#a" />
    <radialGradient
       id="d"
       cx=".48875"
       cy=".46"
       r=".43293">
      <stop
         offset="0"
         id="stop28" />
      <stop
         stop-opacity="0"
         offset="1"
         id="stop30" />
    </radialGradient>
    <radialGradient
       id="c"
       cx=".44056"
       cy=".50781"
       r=".83326">
      <stop
         stop-color="#fff"
         stop-opacity=".5843"
         offset="0"
         id="stop33" />
      <stop
         stop-opacity="0"
         offset="1"
         id="stop35" />
    </radialGradient>
    <radialGradient
       id="b"
       cx=".54037"
       cy=".375"
       r=".56544"
       xlink:href="#a" />
    <filter
       style="color-interpolation-filters:sRGB;"
       inkscape:label="Color Shift"
       id="filter4238">
      <feColorMatrix
         type="hueRotate"
         values="360"
         result="color1"
         id="feColorMatrix4234" />
      <feColorMatrix
         type="saturate"
         values="0"
         result="color2"
         id="feColorMatrix4236" />
    </filter>
    <filter
       style="color-interpolation-filters:sRGB;"
       inkscape:label="Color Shift"
       id="filter4244">
      <feColorMatrix
         type="hueRotate"
         values="360"
         result="color1"
         id="feColorMatrix4240" />
      <feColorMatrix
         type="saturate"
         values="0"
         result="color2"
         id="feColorMatrix4242" />
    </filter>
    <filter
       style="color-interpolation-filters:sRGB;"
       inkscape:label="Color Shift"
       id="filter4250">
      <feColorMatrix
         type="hueRotate"
         values="360"
         result="color1"
         id="feColorMatrix4246" />
      <feColorMatrix
         type="saturate"
         values="0"
         result="color2"
         id="feColorMatrix4248" />
    </filter>
    <filter
       style="color-interpolation-filters:sRGB;"
       inkscape:label="Color Shift"
       id="filter4256">
      <feColorMatrix
         type="hueRotate"
         values="360"
         result="color1"
         id="feColorMatrix4252" />
      <feColorMatrix
         type="saturate"
         values="0"
         result="color2"
         id="feColorMatrix4254" />
    </filter>
    <filter
       style="color-interpolation-filters:sRGB;"
       inkscape:label="Color Shift"
       id="filter4262">
      <feColorMatrix
         type="hueRotate"
         values="360"
         result="color1"
         id="feColorMatrix4258" />
      <feColorMatrix
         type="saturate"
         values="0"
         result="color2"
         id="feColorMatrix4260" />
    </filter>
    <filter
       style="color-interpolation-filters:sRGB;"
       inkscape:label="Color Shift"
       id="filter4268">
      <feColorMatrix
         type="hueRotate"
         values="360"
         result="color1"
         id="feColorMatrix4264" />
      <feColorMatrix
         type="saturate"
         values="0"
         result="color2"
         id="feColorMatrix4266" />
    </filter>
    <filter
       style="color-interpolation-filters:sRGB;"
       inkscape:label="Color Shift"
       id="filter4274">
      <feColorMatrix
         type="hueRotate"
         values="360"
         result="color1"
         id="feColorMatrix4270" />
      <feColorMatrix
         type="saturate"
         values="0"
         result="color2"
         id="feColorMatrix4272" />
    </filter>
    <filter
       style="color-interpolation-filters:sRGB;"
       inkscape:label="Color Shift"
       id="filter4280">
      <feColorMatrix
         type="hueRotate"
         values="360"
         result="color1"
         id="feColorMatrix4276" />
      <feColorMatrix
         type="saturate"
         values="0"
         result="color2"
         id="feColorMatrix4278" />
    </filter>
    <filter
       style="color-interpolation-filters:sRGB;"
       inkscape:label="Color Shift"
       id="filter4286">
      <feColorMatrix
         type="hueRotate"
         values="360"
         result="color1"
         id="feColorMatrix4282" />
      <feColorMatrix
         type="saturate"
         values="0"
         result="color2"
         id="feColorMatrix4284" />
    </filter>
    <filter
       style="color-interpolation-filters:sRGB;"
       inkscape:label="Color Shift"
       id="filter4292">
      <feColorMatrix
         type="hueRotate"
         values="360"
         result="color1"
         id="feColorMatrix4288" />
      <feColorMatrix
         type="saturate"
         values="0"
         result="color2"
         id="feColorMatrix4290" />
    </filter>
    <filter
       style="color-interpolation-filters:sRGB;"
       inkscape:label="Color Shift"
       id="filter4298">
      <feColorMatrix
         type="hueRotate"
         values="360"
         result="color1"
         id="feColorMatrix4294" />
      <feColorMatrix
         type="saturate"
         values="0"
         result="color2"
         id="feColorMatrix4296" />
    </filter>
  </defs>
  <path
     d="m22.53 354.78-2.5359 64.661 417.48 16.373 2.5359-64.661-417.48-16.373z"
     fill="url(#d)"
     fill-rule="evenodd"
     id="path41"
     style="filter:url(#filter4238)" />
  <path
     d="m83.045 134.92c-36.437 26.642-52.118 50.359-66.952 81.344 18.124 31.903 68.361 120.13 97.648 166.29 28.196 3.6248 52.653-11.234 72.932-25.424 41.123-28.419 215.2-148.67 224.05-154.73-18.714-30.866-94.32-158.47-107.41-183.08-25.547-1.2545-71.806 13.857-92.345 27.933-9.15-4.3279-19.935-8.9393-32.254-13.167-20.757 14.167-74.903 50.707-91.376 62.727-1.5995 10.38-2.7252 25.388-4.2919 38.113z"
     fill="url(#h)"
     fill-rule="evenodd"
     stroke="#129700"
     stroke-linejoin="bevel"
     stroke-width="12.077"
     id="path43"
     style="filter:url(#filter4244)" />
  <path
     d="m24.025 241c18.299-11.148 102.82-34.428 122.58-42.281 17.881 25.802 66.345 99.642 79.188 127.16-1.4453 15.718-95.505 70.871-105.28 68.527-12.732-4.7982-88.14-136.66-96.486-153.41z"
     fill="url(#i)"
     fill-rule="evenodd"
     stroke="#00c200"
     stroke-linejoin="bevel"
     stroke-width="6.4252"
     id="path45"
     style="filter:url(#filter4250)" />
  <path
     d="m305.27 201.17c0 52.054-42.828 94.252-95.659 94.252s-95.659-42.198-95.659-94.252 42.828-94.252 95.659-94.252 95.659 42.198 95.659 94.252z"
     fill="url(#e)"
     fill-rule="evenodd"
     id="path47"
     style="filter:url(#filter4256)" />
  <path
     d="m292.6 201.17c0 45.839-37.16 82.998-82.998 82.998s-82.998-37.16-82.998-82.998 37.16-82.998 82.998-82.998 82.998 37.16 82.998 82.998z"
     fill="url(#f)"
     fill-rule="evenodd"
     id="path49"
     style="filter:url(#filter4262)" />
  <path
     transform="matrix(.83784 0 0 .88406 27.869 11.132)"
     d="m267.28 217.34c0 26.804-23.304 48.533-52.05 48.533s-52.05-21.729-52.05-48.533 23.304-48.533 52.05-48.533 52.05 21.729 52.05 48.533z"
     fill="url(#g)"
     fill-rule="evenodd"
     id="path51"
     style="filter:url(#filter4268)" />
  <path
     d="m103.01 99.505-1.7314 36.257 103.58-69.319-34.373-13.182-67.474 46.244z"
     fill="url(#b)"
     fill-rule="evenodd"
     stroke="#647893"
     stroke-width="3.75"
     id="path53"
     style="filter:url(#filter4274)" />
  <path
     d="m251.07 177.53c13.18 19.87 5.248 47.464-17.717 61.634s-52.265 9.5488-65.445-10.321-5.2477-47.464 17.716-61.634 52.265-9.5488 65.445 10.321z"
     fill="url(#c)"
     fill-rule="evenodd"
     id="path55"
     style="filter:url(#filter4280)" />
  <path
     d="m313.71 67.523c-11.004-18.39-12.106-27.523-21.101-35.169-6.8413-5.8151-32.587 20.16-29.542 35.169 4.3311 21.347 97.761 132.57 109.73 132.23 4.5976-8.9171-51.195-119.05-59.084-132.23z"
     fill="#efffff"
     fill-opacity=".7449"
     fill-rule="evenodd"
     id="path57"
     style="filter:url(#filter4286)" />
  <path
     d="m138.64 134.04 222.78 162.35 21.808-32.457-222.78-162.35-21.809 32.457z"
     fill="#f00"
     fill-rule="evenodd"
     id="path59"
     style="filter:url(#filter4292)" />
  <path
     d="m330.82 74.781-174.56 217.11 29.165 25.432 174.56-217.11-29.165-25.432z"
     fill="#f00"
     fill-rule="evenodd"
     id="path61"
     style="filter:url(#filter4298)" />
</svg>
